<?xml version="1.0" encoding="utf-8"?>
<!-- Generator: Adobe Illustrator 15.1.0, SVG Export Plug-In  -->
<!DOCTYPE svg PUBLIC "-//W3C//DTD SVG 1.1//EN" "http://www.w3.org/Graphics/SVG/1.1/DTD/svg11.dtd" [
	<!ENTITY ns_flows "http://ns.adobe.com/Flows/1.0/">
]>
<svg version="1.1"
	 xmlns="http://www.w3.org/2000/svg" xmlns:xlink="http://www.w3.org/1999/xlink" xmlns:a="http://ns.adobe.com/AdobeSVGViewerExtensions/3.0/"
	 x="0px" y="0px" width="14px" height="14px" viewBox="0 0 14 14" enable-background="new 0 0 14 14" xml:space="preserve">
<defs>
</defs>
<path fill="#98A2AF" d="M7,0C3.14,0,0,3.14,0,7c0,3.859,3.14,7,7,7s7-3.141,7-7C14,3.14,10.86,0,7,0z M7,12.86
	c-3.231,0-5.859-2.629-5.859-5.859c0-3.231,2.628-5.86,5.859-5.86S12.859,3.77,12.859,7C12.859,10.231,10.231,12.86,7,12.86z
	 M10.616,5.2c0.117,0.17,0.074,0.402-0.095,0.519L7.142,8.053C7.079,8.097,7.004,8.119,6.93,8.119c-0.059,0-0.119-0.014-0.173-0.042
	c-0.123-0.065-0.2-0.192-0.2-0.331V2.75c0-0.206,0.167-0.373,0.373-0.373c0.206,0,0.373,0.167,0.373,0.373v4.286l2.794-1.93
	C10.267,4.988,10.499,5.031,10.616,5.2z"/>
</svg>
