<?xml version="1.0" encoding="utf-8"?>
<!-- Generator: Adobe Illustrator 15.1.0, SVG Export Plug-In  -->
<!DOCTYPE svg PUBLIC "-//W3C//DTD SVG 1.1//EN" "http://www.w3.org/Graphics/SVG/1.1/DTD/svg11.dtd" [
	<!ENTITY ns_flows "http://ns.adobe.com/Flows/1.0/">
]>
<svg version="1.1"
	 xmlns="http://www.w3.org/2000/svg" xmlns:xlink="http://www.w3.org/1999/xlink" xmlns:a="http://ns.adobe.com/AdobeSVGViewerExtensions/3.0/"
	 x="0px" y="0px" width="43px" height="43px" viewBox="0 0.001 43 43" enable-background="new 0 0.001 43 43" xml:space="preserve">
<defs>
</defs>
<path fill="#D4D4D4" d="M13.243,17.169c0.297,0.205,0.352,0.577,0.459,0.898c0.577,1.793,1.518,3.48,2.804,4.855v0.005
	c2.787,2.688,7.199,2.688,9.986,0c1.406-1.498,2.367-3.359,2.955-5.319c0.055-0.297,0.341-0.444,0.531-0.649
	c1.029-1.028,1.231-2.765,0.461-4.001c-0.105-0.188-0.295-0.35-0.283-0.583c0-1.576,0.008-3.155-0.004-4.729
	c-0.041-1.902-0.586-3.879-1.918-5.287c-1.076-1.138-2.555-1.815-4.078-2.105c-1.928-0.368-3.942-0.349-5.851,0.136
	c-1.653,0.418-3.207,1.386-4.168,2.821c-0.85,1.248-1.223,2.764-1.285,4.257c-0.024,1.604-0.006,3.211-0.011,4.819
	c0.036,0.322-0.236,0.54-0.359,0.806C11.755,14.414,12.075,16.21,13.243,17.169z M34.938,30.318H32.25
	c-2.624,0-4.8-1.881-5.271-4.366c-1.645,1.103-3.521,1.68-5.479,1.68c-1.977,0-3.866-0.59-5.478-1.669
	c-0.478,2.48-2.653,4.355-5.272,4.355H8.063c0,0-4.871,1.345-8.063,8.063v1.933c0,1.484,1.204,2.688,2.688,2.688h37.625
	c1.485,0,2.688-1.202,2.688-2.688v-1.933C39.809,31.663,34.938,30.318,34.938,30.318z"/>
</svg>
