<?xml version="1.0" encoding="utf-8"?>
<!-- Generator: Adobe Illustrator 15.1.0, SVG Export Plug-In  -->
<!DOCTYPE svg PUBLIC "-//W3C//DTD SVG 1.1//EN" "http://www.w3.org/Graphics/SVG/1.1/DTD/svg11.dtd" [
	<!ENTITY ns_flows "http://ns.adobe.com/Flows/1.0/">
]>
<svg version="1.1"
	 xmlns="http://www.w3.org/2000/svg" xmlns:xlink="http://www.w3.org/1999/xlink" xmlns:a="http://ns.adobe.com/AdobeSVGViewerExtensions/3.0/"
	 x="0px" y="0px" width="23px" height="23px" viewBox="0 0 23 23" enable-background="new 0 0 23 23" xml:space="preserve">
<defs>
</defs>
<g>
	<g>
		<path fill-rule="evenodd" clip-rule="evenodd" fill="#D4D4D4" d="M4.313,11.495h14.375v-1.438H4.313V11.495z M4.313,8.621h14.375
			V7.184H4.313V8.621z M18.688,0H4.313C1.931,0,0,1.93,0,4.311v14.368c0,2.381,1.931,4.311,4.313,4.311h14.375
			c2.382,0,4.312-1.93,4.312-4.311V4.311C23,1.93,21.069,0,18.688,0z M20.125,18.679c0,0.794-0.644,1.437-1.438,1.437H4.313
			c-0.794,0-1.438-0.643-1.438-1.437V4.311c0-0.794,0.644-1.438,1.438-1.438h14.375c0.794,0,1.438,0.644,1.438,1.438V18.679z
			 M4.313,5.747h14.375V4.311H4.313V5.747z M12.516,13.354c-0.281-0.28-0.648-0.422-1.016-0.422s-0.736,0.142-1.017,0.422
			l-2.875,2.874c-0.41,0.409-0.534,1.025-0.312,1.564c0.222,0.537,0.747,0.887,1.328,0.887h5.75c0.581,0,1.106-0.35,1.328-0.887
			c0.222-0.536,0.1-1.156-0.311-1.565L12.516,13.354z"/>
	</g>
</g>
</svg>
