<?xml version="1.0" encoding="utf-8"?>
<!-- Generator: Adobe Illustrator 15.1.0, SVG Export Plug-In  -->
<!DOCTYPE svg PUBLIC "-//W3C//DTD SVG 1.1//EN" "http://www.w3.org/Graphics/SVG/1.1/DTD/svg11.dtd" [
	<!ENTITY ns_flows "http://ns.adobe.com/Flows/1.0/">
]>
<svg version="1.1"
	 xmlns="http://www.w3.org/2000/svg" xmlns:xlink="http://www.w3.org/1999/xlink" xmlns:a="http://ns.adobe.com/AdobeSVGViewerExtensions/3.0/"
	 x="0px" y="0px" width="19px" height="27px" viewBox="0 -0.001 19 27" enable-background="new 0 -0.001 19 27"
	 xml:space="preserve">
<defs>
</defs>
<g>
	<g>
		<path fill="#BCBCBC" d="M11.68,20.248H6.746c-0.219,0-0.411,0.086-0.576,0.254c-0.165,0.17-0.247,0.365-0.247,0.59v5.063
			c0,0.227,0.083,0.422,0.247,0.592c0.165,0.168,0.356,0.252,0.576,0.252h4.934c0.221,0,0.412-0.084,0.576-0.252
			c0.165-0.17,0.247-0.365,0.247-0.592v-5.063c0-0.225-0.081-0.42-0.247-0.59C12.092,20.333,11.9,20.248,11.68,20.248z
			 M18.158,5.094c-0.563-1.062-1.289-1.958-2.18-2.689c-0.891-0.731-1.893-1.315-3.002-1.75C11.865,0.218,10.763,0,9.666,0
			C5.499,0,2.318,1.87,0.125,5.611C0.016,5.793-0.022,5.99,0.012,6.201c0.034,0.211,0.141,0.387,0.318,0.527l3.373,2.637
			c0.178,0.112,0.35,0.168,0.514,0.168c0.247,0,0.459-0.113,0.637-0.338c0.987-1.265,1.72-2.074,2.2-2.425
			c0.589-0.408,1.33-0.611,2.221-0.611c0.836,0,1.572,0.225,2.211,0.674c0.637,0.45,0.955,0.97,0.955,1.561
			c0,0.661-0.171,1.195-0.514,1.603c-0.344,0.408-0.919,0.801-1.728,1.181c-1.069,0.492-2.049,1.255-2.94,2.289
			s-1.336,2.134-1.336,3.302v0.949c0,0.266,0.072,0.529,0.216,0.791c0.144,0.26,0.319,0.389,0.524,0.389h4.935
			c0.22,0,0.411-0.107,0.575-0.326s0.247-0.445,0.247-0.686c0-0.352,0.188-0.822,0.565-1.412c0.377-0.592,0.846-1.049,1.408-1.373
			c0.535-0.309,0.952-0.558,1.254-0.749c0.303-0.189,0.696-0.495,1.184-0.917c0.486-0.422,0.863-0.84,1.13-1.255
			c0.268-0.415,0.508-0.953,0.72-1.614C18.895,9.906,19,9.196,19,8.437C19,7.27,18.72,6.155,18.158,5.094z"/>
	</g>
</g>
</svg>
