<?xml version="1.0" encoding="utf-8"?>
<!-- Generator: Adobe Illustrator 15.1.0, SVG Export Plug-In  -->
<!DOCTYPE svg PUBLIC "-//W3C//DTD SVG 1.1//EN" "http://www.w3.org/Graphics/SVG/1.1/DTD/svg11.dtd" [
	<!ENTITY ns_flows "http://ns.adobe.com/Flows/1.0/">
]>
<svg version="1.1"
	 xmlns="http://www.w3.org/2000/svg" xmlns:xlink="http://www.w3.org/1999/xlink" xmlns:a="http://ns.adobe.com/AdobeSVGViewerExtensions/3.0/"
	 x="0px" y="0px" width="51px" height="36px" viewBox="0 -0.003 51 36" enable-background="new 0 -0.003 51 36"
	 xml:space="preserve">
<defs>
</defs>
<g>
	<g>
		<path fill="#D4D4D4" d="M0,27.322h11.726V7.688H0V27.322z M2.009,14.114c0-0.741,0.192-1.06,0.951-1.06h6.924v1.77L4.98,23.431
			H2.097l4.206-7.271c0.401-0.697,0.534-0.929,0-0.929h-1.59c-0.208,0-0.326,0.116-0.326,0.319v0.565H2.009V14.114z M14.699,27.322
			h11.727V7.688H14.699V27.322z M17.659,13.055h6.924v1.77l-4.903,8.606h-2.883l4.206-7.271c0.4-0.697,0.535-0.929,0-0.929h-1.591
			c-0.208,0-0.326,0.116-0.326,0.319v0.565h-2.377v-2.002h0C16.708,13.373,16.901,13.055,17.659,13.055z M29.273,27.322h11.726
			V7.688H29.273V27.322z M31.282,14.114c0-0.741,0.193-1.06,0.95-1.06h6.924v1.77l-4.903,8.606h-2.883l4.206-7.271
			c0.4-0.697,0.534-0.929,0-0.929h-1.591c-0.208,0-0.326,0.116-0.326,0.319v0.565h-2.377V14.114z M0,35.994h2.022
			c0.054-0.533,0.287-0.771,0.937-0.771h6.924v0.771h1.843v-6.136H0V35.994z M14.699,35.994h2.023
			c0.054-0.533,0.288-0.771,0.937-0.771h6.924v0.771h1.843v-6.136H14.699V35.994z M29.273,35.994h2.023
			c0.054-0.533,0.288-0.771,0.937-0.771h6.924v0.771h1.842v-6.136H29.273V35.994z M4.98,1.343H2.097L2.875,0H0v5.235h11.726V0h-5.98
			L4.98,1.343z M19.68,1.343h-2.883L17.574,0h-2.875v5.235h11.727V0h-5.98L19.68,1.343z M35.019,0l-0.765,1.343h-2.883L32.148,0
			h-2.875v5.235h11.726V0H35.019z"/>
	</g>
</g>
<path fill-rule="evenodd" clip-rule="evenodd" fill="#D4D4D4" d="M45.999,4.213h3v20h-3V4.213z"/>
<path fill-rule="evenodd" clip-rule="evenodd" fill="#D4D4D4" d="M48.999,21.213v3h-8v-3H48.999z"/>
<path fill-rule="evenodd" clip-rule="evenodd" fill="#D4D4D4" d="M47.499,0c1.933,0,3.5,1.567,3.5,3.5S49.432,7,47.499,7
	s-3.5-1.567-3.5-3.5S45.566,0,47.499,0z"/>
</svg>
