<?xml version="1.0" encoding="utf-8"?>
<!-- Generator: Adobe Illustrator 15.1.0, SVG Export Plug-In  -->
<!DOCTYPE svg PUBLIC "-//W3C//DTD SVG 1.1//EN" "http://www.w3.org/Graphics/SVG/1.1/DTD/svg11.dtd" [
	<!ENTITY ns_flows "http://ns.adobe.com/Flows/1.0/">
]>
<svg version="1.1"
	 xmlns="http://www.w3.org/2000/svg" xmlns:xlink="http://www.w3.org/1999/xlink" xmlns:a="http://ns.adobe.com/AdobeSVGViewerExtensions/3.0/"
	 x="0px" y="0px" width="24px" height="24px" viewBox="0 0 24 24" enable-background="new 0 0 24 24" xml:space="preserve">
<defs>
</defs>
<path fill="#BCBCBC" d="M6,9h12V6H6V9z M21,0H3C1.342,0,0,1.342,0,3v13.5c0,1.657,1.342,3,3,3h9.75L19.5,24v-4.5H21
	c1.657,0,3-1.343,3-3V3C24,1.342,22.657,0,21,0z M21,15c0,0.828-0.672,1.5-1.5,1.5h-3v2.25l-3.75-2.25H4.5C3.672,16.5,3,15.828,3,15
	V4.5C3,3.671,3.672,3,4.5,3h15C20.328,3,21,3.671,21,4.5V15z M6,13.5h12v-3H6V13.5z"/>
</svg>
