<?xml version="1.0" encoding="utf-8"?>
<!-- Generator: Adobe Illustrator 15.1.0, SVG Export Plug-In  -->
<!DOCTYPE svg PUBLIC "-//W3C//DTD SVG 1.1//EN" "http://www.w3.org/Graphics/SVG/1.1/DTD/svg11.dtd" [
	<!ENTITY ns_flows "http://ns.adobe.com/Flows/1.0/">
]>
<svg version="1.1"
	 xmlns="http://www.w3.org/2000/svg" xmlns:xlink="http://www.w3.org/1999/xlink" xmlns:a="http://ns.adobe.com/AdobeSVGViewerExtensions/3.0/"
	 x="0px" y="0px" width="84px" height="75px" viewBox="0 0 84 75" enable-background="new 0 0 84 75" xml:space="preserve">
<defs>
</defs>
<g>
	<g>
		<path fill="#D76644" d="M81.188,50.985L55.925,8.725C52.607,3.175,47.537,0,42,0c-5.538,0-10.605,3.175-13.925,8.712L2.812,50.985
			c-3.359,5.612-3.727,11.602-1.005,16.426c2.723,4.825,8.03,7.598,14.555,7.598h51.277c6.526,0,11.834-2.772,14.555-7.598
			C84.911,62.587,84.547,56.602,81.188,50.985z M67.639,66.432H16.361c-7.05,0-9.858-4.972-6.222-11.036l25.263-42.261
			c1.815-3.036,4.2-4.557,6.598-4.557c2.395,0,4.782,1.521,6.597,4.557l25.264,42.261C77.495,61.464,74.691,66.432,67.639,66.432z
			 M42,47.99c-3.067,0-5.554,2.496-5.554,5.575c0,3.078,2.487,5.574,5.554,5.574c3.067,0,5.554-2.496,5.554-5.574
			C47.554,50.486,45.067,47.99,42,47.99z M42,21.398c-3.543,0-6.41,2.873-6.41,6.434c0,0.854,0.175,1.669,0.473,2.41
			C38.432,36.144,42,44.987,42,44.987s3.568-8.844,5.942-14.745c0.292-0.741,0.468-1.556,0.468-2.41
			C48.41,24.271,45.542,21.398,42,21.398z"/>
	</g>
</g>
</svg>
