<?xml version="1.0" encoding="utf-8"?>
<!-- Generator: Adobe Illustrator 15.1.0, SVG Export Plug-In  -->
<!DOCTYPE svg PUBLIC "-//W3C//DTD SVG 1.1//EN" "http://www.w3.org/Graphics/SVG/1.1/DTD/svg11.dtd" [
	<!ENTITY ns_flows "http://ns.adobe.com/Flows/1.0/">
]>
<svg version="1.1"
	 xmlns="http://www.w3.org/2000/svg" xmlns:xlink="http://www.w3.org/1999/xlink" xmlns:a="http://ns.adobe.com/AdobeSVGViewerExtensions/3.0/"
	 x="0px" y="0px" width="44px" height="44px" viewBox="0 0 44 44" enable-background="new 0 0 44 44" xml:space="preserve">
<defs>
</defs>
<path fill="#FFFFFF" d="M33.5,15.104l-1.901,1.902c0.892,1.641,1.4,3.51,1.4,5.502c0,6.344-5.165,11.508-11.508,11.508
	S9.984,28.852,9.984,22.508c0-6.343,5.164-11.507,11.507-11.507c1.993,0,3.862,0.508,5.503,1.4l1.902-1.902
	c-2.156-1.335-4.689-2.104-7.406-2.104c-7.782,0-14.112,6.33-14.112,14.112c0,7.783,6.33,14.113,14.112,14.113
	c7.783,0,14.113-6.33,14.113-14.113C35.604,19.793,34.835,17.259,33.5,15.104z M28.219,20.392l-2.286,2.279
	c-0.085,2.384-2.038,4.286-4.442,4.286c-2.455,0-4.448-1.993-4.448-4.449c0-2.402,1.902-4.356,4.285-4.441l2.286-2.279
	c-0.671-0.215-1.381-0.333-2.124-0.333c-3.888,0-7.053,3.165-7.053,7.053c0,3.889,3.165,7.054,7.053,7.054
	c3.888,0,7.053-3.165,7.053-7.054C28.544,21.772,28.434,21.056,28.219,20.392z M39.916,11.457l-1.902,1.902
	c1.505,2.709,2.364,5.829,2.364,9.149c0,10.415-8.473,18.887-18.886,18.887S2.605,32.922,2.605,22.508
	c0-10.413,8.473-18.886,18.886-18.886c3.322,0,6.441,0.859,9.151,2.364l1.901-1.901c-3.23-1.947-7.014-3.068-11.052-3.068
	C9.639,1.017,0,10.655,0,22.508C0,34.361,9.639,44,21.491,44c11.853,0,21.492-9.639,21.492-21.493
	C42.983,18.471,41.863,14.687,39.916,11.457z M37.093,11.512l-2.486-0.276l-12.25,12.25c-0.509,0.508-1.333,0.508-1.842,0
	c-0.509-0.509-0.509-1.333,0-1.842l12.25-12.25l-0.276-2.487L39.396,0l0.921,3.684L44,4.604L37.093,11.512z"/>
</svg>
