<?xml version="1.0" encoding="utf-8"?>
<!-- Generator: Adobe Illustrator 15.1.0, SVG Export Plug-In  -->
<!DOCTYPE svg PUBLIC "-//W3C//DTD SVG 1.1//EN" "http://www.w3.org/Graphics/SVG/1.1/DTD/svg11.dtd" [
	<!ENTITY ns_flows "http://ns.adobe.com/Flows/1.0/">
]>
<svg version="1.1"
	 xmlns="http://www.w3.org/2000/svg" xmlns:xlink="http://www.w3.org/1999/xlink" xmlns:a="http://ns.adobe.com/AdobeSVGViewerExtensions/3.0/"
	 x="0px" y="0px" width="49px" height="49px" viewBox="-0.003 -0.003 49 49" enable-background="new -0.003 -0.003 49 49"
	 xml:space="preserve">
<defs>
</defs>
<path fill="#FFFFFF" d="M41.815,7.173c-2.249-2.249-4.869-4.014-7.787-5.249C31.007,0.648,27.801,0,24.492,0
	c-3.304,0.005-6.51,0.648-9.531,1.93c-2.918,1.235-5.537,3-7.786,5.249s-4.014,4.868-5.25,7.786C0.648,17.984,0,21.19,0,24.5
	c0,3.304,0.648,6.514,1.925,9.535c1.235,2.918,3,5.537,5.25,7.786s4.868,4.014,7.786,5.249c3.021,1.276,6.228,1.925,9.537,1.925
	c3.304,0,6.515-0.648,9.536-1.925c2.918-1.235,5.538-3,7.787-5.249s4.014-4.868,5.25-7.786c1.276-3.021,1.925-6.227,1.925-9.535
	c0-3.304-0.648-6.515-1.925-9.536C45.829,12.041,44.064,9.427,41.815,7.173z M10.936,5.532c0.221-0.17,0.438-0.35,0.664-0.509
	c1.189-0.834,2.506-1.508,3.844-2.069c2.851-1.194,5.949-1.822,9.047-1.822c2.064,0,4.179,0.278,6.171,0.823
	c-0.788,0.319-1.75,0.927-3.366,2.306c-1.343-0.144-2.702-0.149-4.066-0.021c-1.781,0.17-3.572,0.566-5.321,1.184
	c-1.58,0.556-2.831,1.188-3.675,1.672c-1.292-0.463-2.959-1.008-3.783-1.276C10.581,5.861,10.849,5.599,10.936,5.532z
	 M33.251,11.655l-4.189,11.434l-10.051,1.93l-8.306-8.579c0.561-3.89,3.227-7.338,3.227-7.338c0.016-0.01,1.755-1.266,4.544-2.239
	c1.626-0.571,3.284-0.937,4.936-1.091c1.348-0.124,2.691-0.103,4.02,0.057L33.251,11.655z M2.022,23.681
	c-0.257,1.662-0.314,3.386-0.18,5.121c-0.201-0.402-0.36-0.741-0.479-1.014c-0.154-1.076-0.231-2.177-0.231-3.298
	c0-3.448,0.746-6.726,2.089-9.674c-0.149,1.543-0.077,3.144,0.031,4.358C2.676,20.619,2.265,22.127,2.022,23.681z M4.055,32.589
	c-0.236-0.87-0.515-2.136-0.653-3.653c-0.154-1.714-0.108-3.417,0.149-5.048c0.195-1.25,0.509-2.465,0.941-3.633
	c1.693-1.431,3.937-2.27,5.178-2.655l8.152,8.419l-0.854,9.227l-7.967,2.66C6.973,36.412,5.316,34.436,4.055,32.589z M28.264,45.947
	c-1.775,1.163-6.263,1.441-8.085,1.508c-2.007-0.375-3.958-1.019-5.795-1.904c-1.605-0.772-3.129-1.729-4.519-2.851
	c0.026-0.046-0.216-2.501-0.206-3.396l8.049-2.686l9.289,4.019l1.282,5.295C28.27,45.942,28.264,45.947,28.264,45.947z
	 M43.698,37.802c-1.384,1.996-3.042,3.854-5.033,5.264c-1.868,1.317-4.369,1.77-6.592,2.135c-0.17,0.026-2.295,0.376-2.311,0.304
	l-1.281-5.3l6.541-6.809l8.662-0.797c0.134,1.379,0.309,3.391,0.412,4.621C43.961,37.416,43.832,37.611,43.698,37.802z
	 M43.832,30.875c-0.031,0.052-0.062,0.108-0.092,0.17l-8.625,0.792l-4.642-8.12l4.199-11.46l5.929,0.375
	c1.261,1.055,2.378,2.229,3.325,3.494c1.184,1.59,2.105,3.334,2.733,5.182C45.999,27.031,44.48,29.882,43.832,30.875z M46.925,18
	c-0.51-0.982-1.106-1.93-1.781-2.83c-1.065-1.426-2.332-2.737-3.767-3.906c-0.263-1.302-0.983-3.35-2.918-5.501
	c0.036,0.026,0.072,0.057,0.108,0.083c0.118,0.087,0.231,0.18,0.35,0.268c1.333,1.05,2.547,2.238,3.623,3.545
	c1.997,2.434,3.504,5.259,4.39,8.29C46.925,17.969,46.925,17.984,46.925,18z"/>
</svg>
