<?xml version="1.0" encoding="utf-8"?>
<!-- Generator: Adobe Illustrator 15.1.0, SVG Export Plug-In  -->
<!DOCTYPE svg PUBLIC "-//W3C//DTD SVG 1.1//EN" "http://www.w3.org/Graphics/SVG/1.1/DTD/svg11.dtd" [
	<!ENTITY ns_flows "http://ns.adobe.com/Flows/1.0/">
]>
<svg version="1.1"
	 xmlns="http://www.w3.org/2000/svg" xmlns:xlink="http://www.w3.org/1999/xlink" xmlns:a="http://ns.adobe.com/AdobeSVGViewerExtensions/3.0/"
	 x="0px" y="0px" width="46px" height="50px" viewBox="0.002 0 46 50" enable-background="new 0.002 0 46 50" xml:space="preserve">
<defs>
</defs>
<path fill="#FFFFFF" d="M44.841,33.177c-0.48-0.99-1.752-1.792-2.844-1.792h-8.518c-0.545,0-1.222-0.379-1.512-0.845l-7.004-11.288
	L35.329,2.074C36.019,0.93,35.774,0.002,34.783,0c-0.991-0.001-2.365,0.917-3.069,2.05l-8.711,14.041L14.29,2.05
	C13.586,0.917,12.212-0.001,11.221,0c-0.991,0.002-1.236,0.93-0.546,2.074l10.367,17.178l-7.005,11.289
	c-0.289,0.466-0.966,0.845-1.512,0.845H4.007c-1.091,0-2.363,0.803-2.843,1.792l-0.981,2.026c-0.48,0.99,0.017,1.793,1.108,1.793
	h11.975c0.545,0,1.217-0.382,1.502-0.852L23.002,22.5l8.234,13.645c0.284,0.47,0.957,0.852,1.502,0.852h11.975
	c1.091,0,1.587-0.803,1.108-1.793L44.841,33.177z"/>
<g>
	<g>
		<path fill="#FFFFFF" d="M23.002,44.601c-4.418,0-7.999-1.387-7.999-3.1v5.03h0.024c0,1.833,3.571,3.32,7.975,3.32
			c4.405,0,7.977-1.487,7.977-3.32h0.022v-5.03C31.002,43.214,27.421,44.601,23.002,44.601z M23.002,44.05
			c4.418,0,7.999-1.388,7.999-3.101c0-1.712-3.581-3.1-7.999-3.1s-8,1.388-8,3.1C15.003,42.663,18.584,44.05,23.002,44.05z"/>
	</g>
</g>
</svg>
