<?xml version="1.0" encoding="utf-8"?>
<!-- Generator: Adobe Illustrator 15.1.0, SVG Export Plug-In  -->
<!DOCTYPE svg PUBLIC "-//W3C//DTD SVG 1.1//EN" "http://www.w3.org/Graphics/SVG/1.1/DTD/svg11.dtd" [
	<!ENTITY ns_flows "http://ns.adobe.com/Flows/1.0/">
]>
<svg version="1.1"
	 xmlns="http://www.w3.org/2000/svg" xmlns:xlink="http://www.w3.org/1999/xlink" xmlns:a="http://ns.adobe.com/AdobeSVGViewerExtensions/3.0/"
	 x="0px" y="0px" width="44px" height="51px" viewBox="0 0 44 51" enable-background="new 0 0 44 51" xml:space="preserve">
<defs>
</defs>
<g>
	<g>
		<path fill="#FFFFFF" d="M30.976,7.067c-0.056-1.791-0.772-3.57-2.167-4.938C27.416,0.762,25.607,0.055,23.781,0
			c0.207,1.565,1.053,3.248,2.473,4.64C27.674,6.037,29.383,6.865,30.976,7.067z M10.431,8.051h3.149l-1.182-1.523H9.253
			L10.431,8.051z M9.966,16.158l-1.176-1.521H5.625l1.181,1.521H9.966z M14.772,16.158l-1.177-1.521h-2.866l1.177,1.521H14.772z
			 M11.676,12.159l-1.18-1.523H7.632l1.178,1.523H11.676z M22.728,23.931h3.165l-1.182-1.523h-3.163L22.728,23.931z M19.606,22.408
			h-2.863l1.182,1.523h2.864L19.606,22.408z M9.711,22.408H6.416l1.192,1.523H10.9L9.711,22.408z M11.654,22.408l1.182,1.523h3.151
			l-1.181-1.523H11.654z M12.886,19.93l-1.177-1.52H8.55l1.183,1.52H12.886z M18.451,18.41l1.181,1.52h3.159l-1.179-1.52H18.451z
			 M14.826,19.93h2.865l-1.179-1.52h-2.865L14.826,19.93z M6.606,18.41H3.297l1.188,1.52h3.307L6.606,18.41z M9.625,26.517
			l1.189,1.524h3.275l-1.183-1.524H9.625z M17.988,26.517h-3.145l1.181,1.524h3.146L17.988,26.517z M10.729,14.638L8.81,12.159H6.87
			l1.921,2.479H10.729z M12.886,19.93l1.92,2.478h1.937l-1.917-2.478H12.886z M13.647,18.41l-1.741-2.252H9.966l1.743,2.252H13.647z
			 M9.733,19.93H7.792l1.92,2.478h1.942L9.733,19.93z M10.9,23.931l2.008,2.586h1.936l-2.008-2.586H10.9z M8.55,18.41l-1.744-2.252
			H4.861l1.745,2.252H8.55z M23.556,18.41l-1.744-2.252h-1.945l1.745,2.252H23.556z M13.595,14.638h1.937l-1.919-2.479h-1.937
			L13.595,14.638z M19.606,22.408h1.942l-1.917-2.478h-1.94L19.606,22.408z M22.791,26.517h1.939l-2.002-2.586h-1.939L22.791,26.517
			z M16.512,18.41h1.938l-1.74-2.252h-1.938L16.512,18.41z M12.435,10.636l-2.004-2.584H8.494l2.003,2.584H12.435z M43.232,46.059
			l-9.084-10.06l0.024-0.019l-0.105-0.071l-2.139-2.367c-0.207-0.233-0.451-0.413-0.708-0.565c-1.203-1.83-2.435-4.725-2.507-8.917
			c0.357-1.259,0.529-2.609,0.493-4.034c-0.057-2.237-0.628-4.49-1.627-6.625c-0.073,0.047-0.151,0.08-0.227,0.125
			c0.517-0.302,1.011-0.649,1.455-1.083c1.273-1.248,1.985-2.841,2.14-4.473c-1.819-0.206-3.76-1.12-5.353-2.687
			c-1.588-1.562-2.521-3.466-2.735-5.256c-1.659,0.151-3.28,0.854-4.554,2.103c-0.451,0.441-0.8,0.933-1.111,1.444
			c-1.827-0.708-3.72-1.102-5.591-1.102c-2.86,0-5.459,0.892-7.506,2.572c-5.596,4.607-5.442,13.874,0.346,20.661
			c3.227,3.779,7.668,6.126,12.067,6.463l-0.002,0.071c0.063,0.001,5.647,0.308,10.632,4.886c0.078,0.12,0.161,0.243,0.263,0.356
			l11.298,12.52c1.107,1.229,3.018,1.337,4.272,0.25C44.224,49.166,44.339,47.286,43.232,46.059z M5.033,7.278L5.629,8.05h-1.29
			C4.553,7.783,4.783,7.523,5.033,7.278z M17.527,29.981l-1.503-1.94H14.09l1.339,1.726c-2.417-0.433-4.807-1.554-6.896-3.25h1.093
			l-2.018-2.586H5.947c-0.402-0.495-0.77-1.005-1.109-1.524h1.578L4.485,19.93H3.505c-0.539-1.249-0.903-2.52-1.084-3.771h2.439
			L3.68,14.638H2.288c-0.014-0.572,0.022-1.131,0.082-1.681l1.311,1.681h1.945l-1.919-2.479H2.49
			c0.075-0.401,0.179-0.798,0.301-1.181l0.916,1.181H6.87l-1.18-1.523H2.903C3.182,9.861,3.543,9.133,4.01,8.468l1.68,2.168h1.942
			L5.63,8.051h2.864L7.315,6.528H5.903c1.436-1.067,3.184-1.68,5.117-1.78l1.379,1.78h1.934l-1.326-1.71
			c1.116,0.131,2.235,0.422,3.331,0.843c-0.074,0.313-0.143,0.628-0.174,0.945c1.822,0.209,3.761,1.124,5.354,2.684
			c1.592,1.565,2.526,3.472,2.734,5.258L23.1,13.578c-0.368-1.263-1.117-2.542-2.239-3.642c-1.42-1.393-3.131-2.223-4.726-2.427
			c0.019,0.574,0.131,1.145,0.288,1.708l-0.908-1.165H13.58l2.003,2.583h-3.148l1.178,1.523h3.154l-1.18-1.521h1.404
			c0-0.006,0-0.006-0.004-0.012c0.004,0.005,0.004,0.005,0.006,0.012h-0.002c0.002,0.004,0.008,0.01,0.01,0.016
			c0.28,0.526,0.626,1.025,1.051,1.489c0.004,0.006,0.01,0.013,0.015,0.02c0.085,0.093,0.151,0.196,0.24,0.283
			c0.271,0.269,0.566,0.486,0.865,0.7c-0.301-0.208-0.595-0.432-0.865-0.697c-0.09-0.09-0.155-0.194-0.24-0.287h-1.299l1.917,2.476
			h-3.152l1.179,1.521h3.156l-1.177-1.518h1.94l-0.856-1.102c-0.004-0.002-0.01-0.009-0.012-0.011
			c1.103,0.646,2.326,1.014,3.569,1.049c-0.043-0.328-0.13-0.665-0.231-0.997l0.828,1.058H20.63l1.182,1.521h3.305l-1.184-1.518
			h1.701c0.543,1.231,0.921,2.496,1.117,3.771h-3.194l1.178,1.518h-1.944l1.921,2.478h1.953l-1.924-2.475h2.161
			c0,0.051,0.009,0.102,0.009,0.15c0.022,0.809-0.035,1.584-0.163,2.327h-0.084l0.065,0.086c-0.279,1.521-0.872,2.883-1.744,4.022
			h-0.255l0.123,0.158c-0.325,0.401-0.68,0.778-1.075,1.12l-0.987-1.28h-2.865l-2-2.586h-1.938l2.001,2.586h1.936l1.181,1.525h2.38
			c-1.607,1.269-3.64,1.944-5.893,1.944C17.572,29.985,17.548,29.981,17.527,29.981z M27.663,33.287
			c-0.599,0.52-0.929,1.219-0.998,1.945c-2.208-1.73-4.418-2.738-6.212-3.319c1.731-0.394,3.309-1.147,4.645-2.248
			c1.089-0.896,1.967-1.977,2.636-3.195c0.32,2.561,1.061,4.564,1.886,6.084C28.921,32.563,28.224,32.8,27.663,33.287z"/>
	</g>
</g>
</svg>
